…
```r
gapminder%>%
  group_by(continent,year)%>%
  summarise(meanle=mean(lifeExp),.groups="keep")
```

```
## # A tibble: 60 x 3
## # Groups:   continent, year [60]
##    continent  year meanle
##    <fct>     <int>  <dbl>
##  1 Africa     1952   39.1
##  2 Africa     1957   41.3
##  3 Africa     1962   43.3
##  4 Africa     1967   45.3
##  5 Africa     1972   47.5
##  6 Africa     1977   49.6
##  7 Africa     1982   51.6
##  8 Africa     1987   53.3
##  9 Africa     1992   53.6
## 10 Africa     1997   53.6
## # ... with 50 more rows
```
…
```
## [1] "country"   "continent" "year"      "lifeExp"   "pop"       "gdpPercap"
```

**6. We are interested in the relationship between per capita GDP and life expectancy; i.e. does having more money help you live longer?**

```r
gapminder %>% 
  select(lifeExp,gdpPercap) %>% 
  arrange(lifeExp)
```

```
## # A tibble: 1,704 x 2
##    lifeExp gdpPercap
##      <dbl>     <dbl>
##  1    23.6      737.
##  2    28.8      779.
##  3    30        485.
##  4    30.0     3521.
##  5    30.3      880.
##  6    30.3      821.
##  7    31.2      525.
##  8    31.3      469.
##  9    31.6     1004.
## 10    32.0      543.
## # ... with 1,694 more rows
```
…
```r
gapminder %>% 
  filter(year=="1952"|year=="2007") %>% 
  group_by(country) %>% 
  summarize(popchange=(max(pop)-min(pop)),.groups="keep") %>% 
  arrange(desc(popchange))
```

```
## # A tibble: 142 x 2
## # Groups:   country [142]
##    country       popchange
##    <fct>             <int>
##  1 China         762419569
##  2 India         738396331
##  3 United States 143586947
##  4 Indonesia     141495000
##  5 Brazil        133408087
##  6 Pakistan      127924057
##  7 Bangladesh    103561480
##  8 Nigeria       101912068
##  9 Mexico         78556574
## 10 Philippines    68638596
## # ... with 132 more rows
```
…
