…
```r
homerange
```

```
## # A tibble: 569 x 24
##    taxon  common.name   class   order   family genus species primarymethod N    
##    <chr>  <chr>         <chr>   <chr>   <chr>  <chr> <chr>   <chr>         <chr>
##  1 lake ~ american eel  actino~ anguil~ angui~ angu~ rostra~ telemetry     16   
##  2 river~ blacktail re~ actino~ cyprin~ catos~ moxo~ poecil~ mark-recaptu~ <NA> 
##  3 river~ central ston~ actino~ cyprin~ cypri~ camp~ anomal~ mark-recaptu~ 20   
##  4 river~ rosyside dace actino~ cyprin~ cypri~ clin~ fundul~ mark-recaptu~ 26   
##  5 river~ longnose dace actino~ cyprin~ cypri~ rhin~ catara~ mark-recaptu~ 17   
##  6 river~ muskellunge   actino~ esocif~ esoci~ esox  masqui~ telemetry     5    
##  7 marin~ pollack       actino~ gadifo~ gadid~ poll~ pollac~ telemetry     2    
##  8 marin~ saithe        actino~ gadifo~ gadid~ poll~ virens  telemetry     2    
##  9 marin~ lined surgeo~ actino~ percif~ acant~ acan~ lineat~ direct obser~ <NA> 
## 10 marin~ orangespine ~ actino~ percif~ acant~ naso  litura~ telemetry     8    
## # ... with 559 more rows, and 15 more variables: mean.mass.g <dbl>,
## #   log10.mass <dbl>, alternative.mass.reference <chr>, mean.hra.m2 <dbl>,
## #   log10.hra <dbl>, hra.reference <chr>, realm <chr>, thermoregulation <chr>,
## #   locomotion <chr>, trophic.guild <chr>, dimension <chr>, preymass <dbl>,
## #   log10.preymass <dbl>, PPMR <dbl>, prey.size.reference <chr>
```
…
**4. What taxa are represented in the `homerange` data frame? Make a new data frame `taxa` that is restricted to taxon, common name, class, order, family, genus, species.**  

```r
taxa <- homerange%>% 
  select(taxon,common.name,class,order,family,genus,species)
taxa
```

```
## # A tibble: 569 x 7
##    taxon     common.name       class      order     family    genus    species  
##    <fct>     <chr>             <chr>      <fct>     <chr>     <chr>    <chr>    
##  1 lake fis~ american eel      actinopte~ anguilli~ anguilli~ anguilla rostrata 
##  2 river fi~ blacktail redhor~ actinopte~ cyprinif~ catostom~ moxosto~ poecilura
##  3 river fi~ central stonerol~ actinopte~ cyprinif~ cyprinid~ campost~ anomalum 
##  4 river fi~ rosyside dace     actinopte~ cyprinif~ cyprinid~ clinost~ funduloi~
##  5 river fi~ longnose dace     actinopte~ cyprinif~ cyprinid~ rhinich~ cataract~
##  6 river fi~ muskellunge       actinopte~ esocifor~ esocidae  esox     masquino~
##  7 marine f~ pollack           actinopte~ gadiform~ gadidae   pollach~ pollachi~
##  8 marine f~ saithe            actinopte~ gadiform~ gadidae   pollach~ virens   
##  9 marine f~ lined surgeonfish actinopte~ percifor~ acanthur~ acanthu~ lineatus 
## 10 marine f~ orangespine unic~ actinopte~ percifor~ acanthur~ naso     lituratus
## # ... with 559 more rows
```
…
```
## 
## carnivore herbivore 
##       342       227
```

**7. Make two new data frames, one which is restricted to carnivores and another that is restricted to herbivores.**  

```r
herbi<- filter(homerange, trophic.guild == "herbivore")
herbi
```

```
## # A tibble: 227 x 24
##    taxon  common.name   class   order  family  genus species primarymethod N    
##    <fct>  <chr>         <chr>   <fct>  <chr>   <chr> <chr>   <chr>         <chr>
##  1 marin~ lined surgeo~ actino~ perci~ acanth~ acan~ lineat~ direct obser~ <NA> 
##  2 marin~ orangespine ~ actino~ perci~ acanth~ naso  litura~ telemetry     8    
##  3 marin~ bluespine un~ actino~ perci~ acanth~ naso  unicor~ telemetry     7    
##  4 marin~ redlip blenny actino~ perci~ blenni~ ophi~ atlant~ direct obser~ 20   
##  5 marin~ bermuda chub  actino~ perci~ kyphos~ kyph~ sectat~ telemetry     11   
##  6 marin~ cherubfish    actino~ perci~ pomaca~ cent~ argi    direct obser~ <NA> 
##  7 marin~ damselfish    actino~ perci~ pomace~ chro~ chromis direct obser~ <NA> 
##  8 marin~ twinspot dam~ actino~ perci~ pomace~ chry~ biocel~ direct obser~ 18   
##  9 marin~ wards damsel  actino~ perci~ pomace~ poma~ wardi   direct obser~ <NA> 
## 10 marin~ australian g~ actino~ perci~ pomace~ steg~ apical~ direct obser~ <NA> 
## # ... with 217 more rows, and 15 more variables: mean.mass.g <dbl>,
## #   log10.mass <dbl>, alternative.mass.reference <chr>, mean.hra.m2 <dbl>,
## #   log10.hra <dbl>, hra.reference <chr>, realm <chr>, thermoregulation <chr>,
## #   locomotion <chr>, trophic.guild <chr>, dimension <chr>, preymass <dbl>,
## #   log10.preymass <dbl>, PPMR <dbl>, prey.size.reference <chr>
```

```r
carni<-filter(homerange,trophic.guild == "carnivore")
carni
```

```
## # A tibble: 342 x 24
##    taxon   common.name   class   order  family genus species primarymethod N    
##    <fct>   <chr>         <chr>   <fct>  <chr>  <chr> <chr>   <chr>         <chr>
##  1 lake f~ american eel  actino~ angui~ angui~ angu~ rostra~ telemetry     16   
##  2 river ~ blacktail re~ actino~ cypri~ catos~ moxo~ poecil~ mark-recaptu~ <NA> 
##  3 river ~ central ston~ actino~ cypri~ cypri~ camp~ anomal~ mark-recaptu~ 20   
##  4 river ~ rosyside dace actino~ cypri~ cypri~ clin~ fundul~ mark-recaptu~ 26   
##  5 river ~ longnose dace actino~ cypri~ cypri~ rhin~ catara~ mark-recaptu~ 17   
##  6 river ~ muskellunge   actino~ esoci~ esoci~ esox  masqui~ telemetry     5    
##  7 marine~ pollack       actino~ gadif~ gadid~ poll~ pollac~ telemetry     2    
##  8 marine~ saithe        actino~ gadif~ gadid~ poll~ virens  telemetry     2    
##  9 marine~ giant treval~ actino~ perci~ caran~ cara~ ignobi~ telemetry     4    
## 10 lake f~ rock bass     actino~ perci~ centr~ ambl~ rupest~ mark-recaptu~ 16   
## # ... with 332 more rows, and 15 more variables: mean.mass.g <dbl>,
## #   log10.mass <dbl>, alternative.mass.reference <chr>, mean.hra.m2 <dbl>,
## #   log10.hra <dbl>, hra.reference <chr>, realm <chr>, thermoregulation <chr>,
## #   locomotion <chr>, trophic.guild <chr>, dimension <chr>, preymass <dbl>,
## #   log10.preymass <dbl>, PPMR <dbl>, prey.size.reference <chr>
```
…
**10. As measured by the data, which snake species has the smallest homerange? Show all of your work, please. Look this species up online and tell me about it!** **Snake is found in taxon column**    

```r
snakes <- filter(homerange, taxon=="snakes")
arrange(snakes,mean.hra.m2)
```

```
## # A tibble: 41 x 24
##    taxon  common.name   class  order  family genus  species  primarymethod N    
##    <fct>  <chr>         <chr>  <fct>  <chr>  <chr>  <chr>    <chr>         <chr>
##  1 snakes namaqua dwar~ repti~ squam~ viper~ bitis  schneid~ telemetry     11   
##  2 snakes eastern worm~ repti~ squam~ colub~ carph~ viridis  radiotag      10   
##  3 snakes butlers gart~ repti~ squam~ colub~ thamn~ butleri  mark-recaptu~ 1    
##  4 snakes western worm~ repti~ squam~ colub~ carph~ vermis   radiotag      1    
##  5 snakes snubnosed vi~ repti~ squam~ viper~ vipera latastei telemetry     7    
##  6 snakes chinese pit ~ repti~ squam~ viper~ gloyd~ shedaoe~ telemetry     16   
##  7 snakes ringneck sna~ repti~ squam~ colub~ diado~ punctat~ mark-recaptu~ <NA> 
##  8 snakes cottonmouth   repti~ squam~ viper~ agkis~ piscivo~ telemetry     15   
##  9 snakes redbacked ra~ repti~ squam~ colub~ oocat~ rufodor~ telemetry     21   
## 10 snakes gopher snake  repti~ squam~ colub~ pituo~ catenif~ telemetry     4    
## # ... with 31 more rows, and 15 more variables: mean.mass.g <dbl>,
## #   log10.mass <dbl>, alternative.mass.reference <chr>, mean.hra.m2 <dbl>,
## #   log10.hra <dbl>, hra.reference <chr>, realm <chr>, thermoregulation <chr>,
## #   locomotion <chr>, trophic.guild <chr>, dimension <chr>, preymass <dbl>,
## #   log10.preymass <dbl>, PPMR <dbl>, prey.size.reference <chr>
```
…
