…
```
## # A tibble: 1 x 1
##   distinct_country
##              <int>
## 1              203
```


```r
fisheries_tidy%>%
count(country, sort = T)
```

```
## # A tibble: 203 x 2
##    country                      n
##    <chr>                    <int>
##  1 United States of America 18080
##  2 Spain                    17482
##  3 Japan                    15429
##  4 Portugal                 11570
##  5 Korea, Republic of       10824
##  6 France                   10639
##  7 Taiwan Province of China  9927
##  8 Indonesia                 9274
##  9 Australia                 8183
## 10 Un. Sov. Soc. Rep.        7084
## # … with 193 more rows
```
203 countries 
4. Refocus the data only to include only: country, isscaap_taxonomic_group, asfis_species_name, asfis_species_number, year, catch.

```r
fisheries_tidy %>% 
  select(country, isscaap_taxonomic_group, asfis_species_name, asfis_species_number, year, catch)
```

```
## # A tibble: 376,771 x 6
##    country isscaap_taxonomic_g… asfis_species_na… asfis_species_num…  year catch
##    <chr>   <chr>                <chr>             <chr>              <dbl> <dbl>
##  1 Albania Sharks, rays, chima… Squatinidae       10903XXXXX          1995    NA
##  2 Albania Sharks, rays, chima… Squatinidae       10903XXXXX          1996    53
##  3 Albania Sharks, rays, chima… Squatinidae       10903XXXXX          1997    20
##  4 Albania Sharks, rays, chima… Squatinidae       10903XXXXX          1998    31
##  5 Albania Sharks, rays, chima… Squatinidae       10903XXXXX          1999    30
##  6 Albania Sharks, rays, chima… Squatinidae       10903XXXXX          2000    30
##  7 Albania Sharks, rays, chima… Squatinidae       10903XXXXX          2001    16
##  8 Albania Sharks, rays, chima… Squatinidae       10903XXXXX          2002    79
##  9 Albania Sharks, rays, chima… Squatinidae       10903XXXXX          2003     1
## 10 Albania Sharks, rays, chima… Squatinidae       10903XXXXX          2004     4
## # … with 376,761 more rows
```
…
6. Which country had the largest overall catch in the year 2000?

```r
fisheries_tidy %>%
  filter(year=="2000") %>% 
  group_by(country) %>% 
  summarize(sumcatch=sum(catch,na.rm=T),
            totaln=n(),.groups= 'keep') %>% 
  arrange(desc(sumcatch))
```

```
## # A tibble: 193 x 3
## # Groups:   country [193]
##    country                  sumcatch totaln
##    <chr>                       <dbl>  <int>
##  1 China                       25899     93
##  2 Russian Federation          12181    192
##  3 United States of America    11762    438
##  4 Japan                        8510    241
##  5 Indonesia                    8341    140
##  6 Peru                         7443     54
##  7 Chile                        6906     91
##  8 India                        6351     98
##  9 Thailand                     6243    127
## 10 Korea, Republic of           6124    265
## # … with 183 more rows
```
China had the largest overall catchin the year 2000

7. Which country caught the most sardines (_Sardina pilchardus_) between the years 1990-2000?

```r
fisheries_tidy %>% 
  filter(year>=1990, year<=2000,asfis_species_name=="Sardina pilchardus") %>%
  group_by(country) %>% 
  summarize(catchsum=sum(catch,na.rm=T), .groups= 'keep') %>% 
  arrange(desc(catchsum))
```

```
## # A tibble: 37 x 2
## # Groups:   country [37]
##    country               catchsum
##    <chr>                    <dbl>
##  1 Morocco                   7470
##  2 Spain                     3507
##  3 Russian Federation        1639
##  4 Ukraine                   1030
##  5 France                     966
##  6 Portugal                   818
##  7 Greece                     528
##  8 Italy                      507
##  9 Serbia and Montenegro      478
## 10 Denmark                    477
## # … with 27 more rows
```
…
9. Which species had the highest catch total between 2008-2012? (hint: Osteichthyes is not a species)

```r
fisheries_tidy %>%
  filter(year>=2008, year<=2012) %>%
  group_by(asfis_species_name) %>%
  summarize(species_catch_count=sum(catch,na.rm=T), .groups= 'keep') %>% 
  arrange(desc(species_catch_count))
```

```
## # A tibble: 1,472 x 2
## # Groups:   asfis_species_name [1,472]
##    asfis_species_name    species_catch_count
##    <chr>                               <dbl>
##  1 Osteichthyes                       107808
##  2 Theragra chalcogramma               41075
##  3 Engraulis ringens                   35523
##  4 Katsuwonus pelamis                  32153
##  5 Trichiurus lepturus                 30400
##  6 Clupea harengus                     28527
##  7 Thunnus albacares                   20119
##  8 Scomber japonicus                   14723
##  9 Gadus morhua                        13253
## 10 Thunnus alalunga                    12019
## # … with 1,462 more rows
```
…
