…
**4. How many total NA's are in each data set? Do these values make sense? Are NA's represented by values?**   


```r
naniar::miss_var_summary(amphibio) %>% 
  mutate(n_miss_sum=sum(n_miss))
```

```
## # A tibble: 38 x 4
##    variable n_miss pct_miss n_miss_sum
##    <chr>     <int>    <dbl>      <int>
##  1 obs        6776    100       170691
##  2 fruits     6774    100.      170691
##  3 flowers    6772     99.9     170691
##  4 seeds      6772     99.9     170691
##  5 leaves     6752     99.6     170691
##  6 dry_cold   6735     99.4     170691
##  7 vert       6657     98.2     170691
##  8 wet_cold   6625     97.8     170691
##  9 crepu      6608     97.5     170691
## 10 dry_warm   6572     97.0     170691
## # ... with 28 more rows
```
170,691 NA's in the amphibio data set. 


```r
naniar::miss_var_summary(amniota) %>% 
  mutate(n_miss_sum=sum(n_miss))
```

```
## # A tibble: 36 x 4
##    variable                  n_miss pct_miss n_miss_sum
##    <chr>                      <int>    <dbl>      <int>
##  1 class                          0        0          0
##  2 order                          0        0          0
##  3 family                         0        0          0
##  4 genus                          0        0          0
##  5 species                        0        0          0
##  6 subspecies                     0        0          0
##  7 common_name                    0        0          0
##  8 female_maturity_d              0        0          0
##  9 litter_or_clutch_size_n        0        0          0
## 10 litters_or_clutches_per_y      0        0          0
## # ... with 26 more rows
```
…
**6. Use the package `naniar` to produce a summary, including percentages, of missing data in each column for the `amniota` data.**  

</div>

**7. Use the package `naniar` to produce a summary, including percentages, of missing data in each column for the `amphibio` data.**

```r
naniar::miss_var_summary(amphibio)
```

```
## # A tibble: 38 x 3
##    variable n_miss pct_miss
##    <chr>     <int>    <dbl>
##  1 obs        6776    100  
##  2 fruits     6774    100. 
##  3 flowers    6772     99.9
##  4 seeds      6772     99.9
##  5 leaves     6752     99.6
##  6 dry_cold   6735     99.4
##  7 vert       6657     98.2
##  8 wet_cold   6625     97.8
##  9 crepu      6608     97.5
## 10 dry_warm   6572     97.0
## # ... with 28 more rows
```
…
